%YAML 1.1
%TAG !u! tag:unity3d.com,2011:
--- !u!114 &11400000
MonoBehaviour:
  m_ObjectHideFlags: 0
  m_CorrespondingSourceObject: {fileID: 0}
  m_PrefabInstance: {fileID: 0}
  m_PrefabAsset: {fileID: 0}
  m_GameObject: {fileID: 0}
  m_Enabled: 1
  m_EditorHideFlags: 0
  m_Script: {fileID: 11500000, guid: ece2d167336305b45b1c872e16cf32a0, type: 3}
  m_Name: EnemyArmored
  m_EditorClassIdentifier: 
  sprite: {fileID: 10907, guid: 0000000000000000f000000000000000, type: 0}
  health: 5
  moveSpeed: 1
  playerDamageAmount: 3
  type: 2
